{
    "Presentación": {
        "Introducción":         false,
        "Lecciones":            false,
        "Biblioteca":           false,
        "Configuracion":        false
    },
    
    "Sonidos": {
        "Sonido largo":         false,
        "Sonido corto":         false,
        "Sonido agudo":         false,
        "Sonido grave":         false,
        "Sonido fuerte":        false,
        "Sonido suave":         false,
        "Sonido consonante":    false,
        "Sonido disonante":     false,
        "Sonido hueco":         false
    },

    "Propiedades del sonido": {
        "Duración":             false,
        "Altura":               false,
        "Volumen":              false,
        "Timbre":               false
    },

    "Las escalas": {
        "Las notas":            false,
        "Intervalo 2da - Intro":false,  
        "Escala mayor":         false,
        "Escala menor":         false,
        "Escala cromática":     false
    },

    "Los intervalos": {
        "Intervalos":           false,
        "Intervalo 2da":        false,
        "Intervalo 3ra":        false,
        "Intervalo 4ta":        false,
        "Intervalo 5ta":        false,
        "Intervalo 6ta":        false,
        "Intervalo 7ma":        false,
        "Intervalo 8va":        false
    },
    
    "Los acordes": {
        "Acordes":              false,
        "Acorde Mayor":         false,
        "Acorde Menor":         false,
        "Acorde disminuido":    false,
        "Acorde aumentado":     false
    },

    "Las figuras rítmicas": {
        "Figuras rítmicas":     false,
        "La redonda":           false,
        "La blanca":            false,
        "La negra":             false,
        "La corchea":           false
    },

    "Leyendo partituras": {
        "La partitura":         false,
        "Pentagrama":           false,
        "Claves":               false,
        "Armaduras":            false,
        "Indicadores":          false
    }
}